HW2 - Data Transformation
…
Question 2

The following questions refer to the flightsdata frame in nycflights13package.

2.1) In a single pipeline for each condition, find all flights that meet the condition:

Had an arrival delay of two or more hours

flights |> filter(arr_delay >= 120)

# A tibble: 10,200 × 19
    year month   day dep_time sched_dep_time dep_delay arr_time sched_arr_time
   <int> <int> <int>    <int>          <int>     <dbl>    <int>          <int>
 1  2013     1     1      811            630       101     1047            830
 2  2013     1     1      848           1835       853     1001           1950
 3  2013     1     1      957            733       144     1056            853
 4  2013     1     1     1114            900       134     1447           1222
 5  2013     1     1     1505           1310       115     1638           1431
 6  2013     1     1     1525           1340       105     1831           1626
 7  2013     1     1     1549           1445        64     1912           1656
 8  2013     1     1     1558           1359       119     1718           1515
 9  2013     1     1     1732           1630        62     2028           1825
10  2013     1     1     1803           1620       103     2008           1750
# ℹ 10,190 more rows
# ℹ 11 more variables: arr_delay <dbl>, carrier <chr>, flight <int>,
#   tailnum <chr>, origin <chr>, dest <chr>, air_time <dbl>, distance <dbl>,
#   hour <dbl>, minute <dbl>, time_hour <dttm>

Flew to Houston (IAH or HOU)

flights |> filter(dest == "IAH" | dest == "HOU")

# A tibble: 9,313 × 19
    year month   day dep_time sched_dep_time dep_delay arr_time sched_arr_time
   <int> <int> <int>    <int>          <int>     <dbl>    <int>          <int>
 1  2013     1     1      517            515         2      830            819
 2  2013     1     1      533            529         4      850            830
 3  2013     1     1      623            627        -4      933            932
 4  2013     1     1      728            732        -4     1041           1038
 5  2013     1     1      739            739         0     1104           1038
 6  2013     1     1      908            908         0     1228           1219
 7  2013     1     1     1028           1026         2     1350           1339
 8  2013     1     1     1044           1045        -1     1352           1351
 9  2013     1     1     1114            900       134     1447           1222
10  2013     1     1     1205           1200         5     1503           1505
# ℹ 9,303 more rows
# ℹ 11 more variables: arr_delay <dbl>, carrier <chr>, flight <int>,
#   tailnum <chr>, origin <chr>, dest <chr>, air_time <dbl>, distance <dbl>,
#   hour <dbl>, minute <dbl>, time_hour <dttm>

Were operated by United, American, or Delta

flights |> filter(carrier == "UA" | carrier == "AA" | carrier == "DL")

# A tibble: 139,504 × 19
    year month   day dep_time sched_dep_time dep_delay arr_time sched_arr_time
   <int> <int> <int>    <int>          <int>     <dbl>    <int>          <int>
 1  2013     1     1      517            515         2      830            819
 2  2013     1     1      533            529         4      850            830
 3  2013     1     1      542            540         2      923            850
 4  2013     1     1      554            600        -6      812            837
 5  2013     1     1      554            558        -4      740            728
 6  2013     1     1      558            600        -2      753            745
 7  2013     1     1      558            600        -2      924            917
 8  2013     1     1      558            600        -2      923            937
 9  2013     1     1      559            600        -1      941            910
10  2013     1     1      559            600        -1      854            902
# ℹ 139,494 more rows
# ℹ 11 more variables: arr_delay <dbl>, carrier <chr>, flight <int>,
#   tailnum <chr>, origin <chr>, dest <chr>, air_time <dbl>, distance <dbl>,
#   hour <dbl>, minute <dbl>, time_hour <dttm>

Departed in summer (July, August, and September)

flights |> filter(month == 7 | month == 8 | month == 9)

# A tibble: 86,326 × 19
    year month   day dep_time sched_dep_time dep_delay arr_time sched_arr_time
   <int> <int> <int>    <int>          <int>     <dbl>    <int>          <int>
 1  2013     7     1        1           2029       212      236           2359
 2  2013     7     1        2           2359         3      344            344
 3  2013     7     1       29           2245       104      151              1
 4  2013     7     1       43           2130       193      322             14
 5  2013     7     1       44           2150       174      300            100
 6  2013     7     1       46           2051       235      304           2358
 7  2013     7     1       48           2001       287      308           2305
 8  2013     7     1       58           2155       183      335             43
 9  2013     7     1      100           2146       194      327             30
10  2013     7     1      100           2245       135      337            135
# ℹ 86,316 more rows
# ℹ 11 more variables: arr_delay <dbl>, carrier <chr>, flight <int>,
#   tailnum <chr>, origin <chr>, dest <chr>, air_time <dbl>, distance <dbl>,
#   hour <dbl>, minute <dbl>, time_hour <dttm>

Arrived more than two hours late, but didn’t leave late

flights |> filter(arr_delay > 120 & dep_delay < 0)

# A tibble: 26 × 19
    year month   day dep_time sched_dep_time dep_delay arr_time sched_arr_time
   <int> <int> <int>    <int>          <int>     <dbl>    <int>          <int>
 1  2013     1    27     1419           1420        -1     1754           1550
 2  2013    10     7     1357           1359        -2     1858           1654
 3  2013    10    16      657            700        -3     1258           1056
 4  2013    11     1      658            700        -2     1329           1015
 5  2013     3    18     1844           1847        -3       39           2219
 6  2013     4    17     1635           1640        -5     2049           1845
 7  2013     4    18      558            600        -2     1149            850
 8  2013     4    18      655            700        -5     1213            950
 9  2013     5    22     1827           1830        -3     2217           2010
10  2013     6     5     1604           1615       -11     2041           1840
# ℹ 16 more rows
# ℹ 11 more variables: arr_delay <dbl>, carrier <chr>, flight <int>,
#   tailnum <chr>, origin <chr>, dest <chr>, air_time <dbl>, distance <dbl>,
#   hour <dbl>, minute <dbl>, time_hour <dttm>

Were delayed by at least an hour, but made up over 30 minutes in flight

flights |> filter (dep_delay >= 60 & air_time > 30)

# A tibble: 26,657 × 19
    year month   day dep_time sched_dep_time dep_delay arr_time sched_arr_time
   <int> <int> <int>    <int>          <int>     <dbl>    <int>          <int>
 1  2013     1     1      811            630       101     1047            830
 2  2013     1     1      826            715        71     1136           1045
 3  2013     1     1      848           1835       853     1001           1950
 4  2013     1     1      957            733       144     1056            853
 5  2013     1     1     1114            900       134     1447           1222
 6  2013     1     1     1120            944        96     1331           1213
 7  2013     1     1     1301           1150        71     1518           1345
 8  2013     1     1     1337           1220        77     1649           1531
 9  2013     1     1     1400           1250        70     1645           1502
10  2013     1     1     1505           1310       115     1638           1431
# ℹ 26,647 more rows
# ℹ 11 more variables: arr_delay <dbl>, carrier <chr>, flight <int>,
#   tailnum <chr>, origin <chr>, dest <chr>, air_time <dbl>, distance <dbl>,
#   hour <dbl>, minute <dbl>, time_hour <dttm>

2.2) Sort flights to find the flights with longest departure delays. Find the flights that left earliest in the morning.

# ????? I'm not entirely sure what this question is asking
flights |> filter(dep_time < 1200) |> arrange(desc(dep_delay), dep_time) 

# A tibble: 131,023 × 19
    year month   day dep_time sched_dep_time dep_delay arr_time sched_arr_time
   <int> <int> <int>    <int>          <int>     <dbl>    <int>          <int>
 1  2013     1     9      641            900      1301     1242           1530
 2  2013     1    10     1121           1635      1126     1239           1810
 3  2013     9    20     1139           1845      1014     1457           2210
 4  2013     7    22      845           1600      1005     1044           1815
 5  2013     4    10     1100           1900       960     1342           2211
 6  2013     6    27      959           1900       899     1236           2226
 7  2013    12     5      756           1700       896     1058           2020
 8  2013     5     3     1133           2055       878     1250           2215
 9  2013     5    19      713           1700       853     1007           1955
10  2013     1     1      848           1835       853     1001           1950
# ℹ 131,013 more rows
# ℹ 11 more variables: arr_delay <dbl>, carrier <chr>, flight <int>,
#   tailnum <chr>, origin <chr>, dest <chr>, air_time <dbl>, distance <dbl>,
#   hour <dbl>, minute <dbl>, time_hour <dttm>

# flights with the longest departure delays
arrange(flights, desc(dep_delay))

# A tibble: 336,776 × 19
    year month   day dep_time sched_dep_time dep_delay arr_time sched_arr_time
   <int> <int> <int>    <int>          <int>     <dbl>    <int>          <int>
 1  2013     1     9      641            900      1301     1242           1530
 2  2013     6    15     1432           1935      1137     1607           2120
 3  2013     1    10     1121           1635      1126     1239           1810
 4  2013     9    20     1139           1845      1014     1457           2210
 5  2013     7    22      845           1600      1005     1044           1815
 6  2013     4    10     1100           1900       960     1342           2211
 7  2013     3    17     2321            810       911      135           1020
 8  2013     6    27      959           1900       899     1236           2226
 9  2013     7    22     2257            759       898      121           1026
10  2013    12     5      756           1700       896     1058           2020
# ℹ 336,766 more rows
# ℹ 11 more variables: arr_delay <dbl>, carrier <chr>, flight <int>,
#   tailnum <chr>, origin <chr>, dest <chr>, air_time <dbl>, distance <dbl>,
#   hour <dbl>, minute <dbl>, time_hour <dttm>

# flights that left earliest in the morning (displays all flights from morning until afternoon)
filter(flights, dep_time < 1200) |>
arrange(dep_time)

# A tibble: 131,023 × 19
    year month   day dep_time sched_dep_time dep_delay arr_time sched_arr_time
   <int> <int> <int>    <int>          <int>     <dbl>    <int>          <int>
 1  2013     1    13        1           2249        72      108           2357
 2  2013     1    31        1           2100       181      124           2225
 3  2013    11    13        1           2359         2      442            440
 4  2013    12    16        1           2359         2      447            437
 5  2013    12    20        1           2359         2      430            440
 6  2013    12    26        1           2359         2      437            440
 7  2013    12    30        1           2359         2      441            437
 8  2013     2    11        1           2100       181      111           2225
 9  2013     2    24        1           2245        76      121           2354
10  2013     3     8        1           2355         6      431            440
# ℹ 131,013 more rows
# ℹ 11 more variables: arr_delay <dbl>, carrier <chr>, flight <int>,
#   tailnum <chr>, origin <chr>, dest <chr>, air_time <dbl>, distance <dbl>,
#   hour <dbl>, minute <dbl>, time_hour <dttm>

2.3) Sort flights to find the fastest flights. (Hint: Try including a math calculation inside of your function.)

mutate(flights, speed = distance / (air_time / 60), .before = 1) |> 
  arrange(desc(speed))

# A tibble: 336,776 × 20
   speed  year month   day dep_time sched_dep_time dep_delay arr_time
   <dbl> <int> <int> <int>    <int>          <int>     <dbl>    <int>
 1  703.  2013     5    25     1709           1700         9     1923
 2  650.  2013     7     2     1558           1513        45     1745
 3  648   2013     5    13     2040           2025        15     2225
 4  641.  2013     3    23     1914           1910         4     2045
 5  591.  2013     1    12     1559           1600        -1     1849
 6  564   2013    11    17      650            655        -5     1059
 7  557.  2013     2    21     2355           2358        -3      412
 8  556.  2013    11    17      759            800        -1     1212
 9  554.  2013    11    16     2003           1925        38       17
10  554.  2013    11    16     2349           2359       -10      402
# ℹ 336,766 more rows
# ℹ 12 more variables: sched_arr_time <int>, arr_delay <dbl>, carrier <chr>,
#   flight <int>, tailnum <chr>, origin <chr>, dest <chr>, air_time <dbl>,
#   distance <dbl>, hour <dbl>, minute <dbl>, time_hour <dttm>

2.4) Was there a flight on every day of 2013?

flights |>
  group_by(month, day) |>
  summarize(count = n())

`summarise()` has grouped output by 'month'. You can override using the
`.groups` argument.

# A tibble: 365 × 3
# Groups:   month [12]
   month   day count
   <int> <int> <int>
 1     1     1   842
 2     1     2   943
 3     1     3   914
 4     1     4   915
 5     1     5   720
 6     1     6   832
 7     1     7   933
 8     1     8   899
 9     1     9   902
10     1    10   932
# ℹ 355 more rows

Yes, there was a flight everyday of 2013 because when you group by month and then day, you effectively see all the days of the year. This tibble has 365 rows, which represents everyday of the year. Since there is a value for everyday in the count column, that means there was at least 1 flight in/out of NYC that particular day in 2013.

2.5) Which flights traveled the farthest distance? Which traveled the least distance?

# flights that traveled the least distance
select(flights, year:day, carrier, flight, air_time, distance) |> 
  arrange(distance, air_time)

# A tibble: 336,776 × 7
    year month   day carrier flight air_time distance
   <int> <int> <int> <chr>    <int>    <dbl>    <dbl>
 1  2013     7    27 US        1632       NA       17
 2  2013     2     3 EV        4619       21       80
 3  2013     2    12 EV        4619       21       80
 4  2013     1     6 EV        4619       22       80
 5  2013     1    23 EV        4619       23       80
 6  2013     2    10 EV        4619       23       80
 7  2013     2     1 EV        4619       24       80
 8  2013     3    30 EV        4457       24       80
 9  2013     1     7 EV        4619       25       80
10  2013     1    14 EV        4619       25       80
# ℹ 336,766 more rows

select(flights, year:day, carrier, flight, air_time, distance) |> 
  slice_min(distance, n = 1)

# A tibble: 1 × 7
   year month   day carrier flight air_time distance
  <int> <int> <int> <chr>    <int>    <dbl>    <dbl>
1  2013     7    27 US        1632       NA       17

# flights that traveled the farthest distance
select(flights, year:day, carrier, flight, air_time, distance) |>
  arrange(desc(distance), desc(air_time))

# A tibble: 336,776 × 7
    year month   day carrier flight air_time distance
   <int> <int> <int> <chr>    <int>    <dbl>    <dbl>
 1  2013     2     6 HA          51      691     4983
 2  2013     3    15 HA          51      686     4983
 3  2013     3    17 HA          51      686     4983
 4  2013     3    16 HA          51      683     4983
 5  2013     2     5 HA          51      679     4983
 6  2013     3    14 HA          51      676     4983
 7  2013    11    20 HA          51      675     4983
 8  2013     4     3 HA          51      671     4983
 9  2013    11    11 HA          51      669     4983
10  2013    11    10 HA          51      667     4983
# ℹ 336,766 more rows

select(flights, year:day, carrier, flight, air_time, distance) |> 
  slice_max(distance, n = 1) |>
  arrange(desc(air_time))

# A tibble: 342 × 7
    year month   day carrier flight air_time distance
   <int> <int> <int> <chr>    <int>    <dbl>    <dbl>
 1  2013     2     6 HA          51      691     4983
 2  2013     3    15 HA          51      686     4983
 3  2013     3    17 HA          51      686     4983
 4  2013     3    16 HA          51      683     4983
 5  2013     2     5 HA          51      679     4983
 6  2013     3    14 HA          51      676     4983
 7  2013    11    20 HA          51      675     4983
 8  2013     4     3 HA          51      671     4983
 9  2013    11    11 HA          51      669     4983
10  2013    11    10 HA          51      667     4983
# ℹ 332 more rows

2.6) Does it matter what order you used filter()and arrange()if you’re using both? Why/why not? Think about the results and how much work the functions would have to do.

Filter reduces the amount of rows a data set has, so if you call filter first before arrange, arrange has less work to do. If arrange gets called first before filter, arrange sorts the entire data set, even the rows that are not needed, and thus wastes time and/or resources. It is more efficient to filter first, then arrange if you’re using both function calls.

2.7) What happens if you specify the name of the same variable multiple times in a select() call?

# experiment
select(flights, year, year, year)

# A tibble: 336,776 × 1
    year
   <int>
 1  2013
 2  2013
 3  2013
 4  2013
 5  2013
 6  2013
 7  2013
 8  2013
 9  2013
10  2013
# ℹ 336,766 more rows

select(flights, year, year, day, day)

# A tibble: 336,776 × 2
    year   day
   <int> <int>
 1  2013     1
 2  2013     1
 3  2013     1
 4  2013     1
 5  2013     1
 6  2013     1
 7  2013     1
 8  2013     1
 9  2013     1
10  2013     1
# ℹ 336,766 more rows

select(flights, year, day, year, day)

# A tibble: 336,776 × 2
    year   day
   <int> <int>
 1  2013     1
 2  2013     1
 3  2013     1
 4  2013     1
 5  2013     1
 6  2013     1
 7  2013     1
 8  2013     1
 9  2013     1
10  2013     1
# ℹ 336,766 more rows

In my experiments, I found that a select() call ignores multiple references to the same variable, no matter the order or how many times you references the same variable. It shows only distinct columns.

2.8) Rename air_time to air_time_min to indicate units of measurement and move it to the beginning of the data frame.

rename(flights, air_time_min = air_time) |>
  relocate(air_time_min, .before = 1)

# A tibble: 336,776 × 19
   air_time_min  year month   day dep_time sched_dep_time dep_delay arr_time
          <dbl> <int> <int> <int>    <int>          <int>     <dbl>    <int>
 1          227  2013     1     1      517            515         2      830
 2          227  2013     1     1      533            529         4      850
 3          160  2013     1     1      542            540         2      923
 4          183  2013     1     1      544            545        -1     1004
 5          116  2013     1     1      554            600        -6      812
 6          150  2013     1     1      554            558        -4      740
 7          158  2013     1     1      555            600        -5      913
 8           53  2013     1     1      557            600        -3      709
 9          140  2013     1     1      557            600        -3      838
10          138  2013     1     1      558            600        -2      753
# ℹ 336,766 more rows
# ℹ 11 more variables: sched_arr_time <int>, arr_delay <dbl>, carrier <chr>,
#   flight <int>, tailnum <chr>, origin <chr>, dest <chr>, distance <dbl>,
#   hour <dbl>, minute <dbl>, time_hour <dttm>
…
