midterm
…
ℹ Use `spec()` to retrieve the full column specification for this data.
ℹ Specify the column types or set `show_col_types = FALSE` to quiet this message.

dim(border)

[1] 394866     10

border

# A tibble: 394,866 × 10
   `Port Name`   State `Port Code` Border Date  Measure Value Latitude Longitude
   <chr>         <chr> <chr>       <chr>  <chr> <chr>   <dbl>    <dbl>     <dbl>
 1 Roma          Texas 2310        US-Me… Dec … Buses      46     26.4     -99.0
 2 Del Rio       Texas 2302        US-Me… Dec … Trucks   6552     29.3    -101. 
 3 Roma          Texas 2310        US-Me… Nov … Trucks   3753     26.4     -99.0
 4 Douglas       Ariz… 2601        US-Me… Oct … Buses      13     31.3    -110. 
 5 Beecher Falls Verm… 0206        US-Ca… Aug … Trucks    422     45.0     -71.5
 6 Laredo        Texas 2304        US-Me… Aug … Buses    2843     27.5     -99.5
 7 Morgan        Mont… 3319        US-Ca… Aug … Trucks     20     49      -108. 
 8 Hidalgo       Texas 2305        US-Me… Aug … Trucks  59677     26.1     -98.3
 9 Raymond       Mont… 3301        US-Ca… Jul … Buses       3     49.0    -105. 
10 Roma          Texas 2310        US-Me… Jul … Bus Pa…   949     26.4     -99.0
# ℹ 394,856 more rows
# ℹ 1 more variable: Point <chr>
…
