midterm
…
# A tibble: 0 × 5
# ℹ 5 variables: Date <chr>, State <chr>, Category <chr>, Dollars <chr>,
#   unit_sales <dbl>

1.4 (2 pts) Convert Date into an actual date and Dollars into numeric units.

Hint: recall the functions ymd and parse_number from the homework.

# could also use Date = as.Date(Date) to convert the column type
foodSales <- foodSales |>
  mutate(Date = ymd(Date), Dollars = as.numeric(parse_number(Dollars)))
foodSales

# A tibble: 88,924 × 5
   Date       State   Category  Dollars unit_sales
   <date>     <chr>   <chr>       <dbl>      <dbl>
 1 2019-10-06 Alabama Alcohol  23611285    2974221
 2 2019-10-13 Alabama Alcohol  23220758    2895573
 3 2019-10-20 Alabama Alcohol  21770283    2730939
 4 2019-10-27 Alabama Alcohol  21956558    2764970
 5 2019-11-03 Alabama Alcohol  23183482    2872683
 6 2019-11-10 Alabama Alcohol  22305042    2787906
 7 2019-11-17 Alabama Alcohol  21752827    2715427
 8 2019-11-24 Alabama Alcohol  22163189    2765197
 9 2019-12-01 Alabama Alcohol  27789778    3220147
10 2019-12-08 Alabama Alcohol  20495494    2592792
# ℹ 88,914 more rows
…
# finding number of states included
foodSales |>
  group_by(State) |>
  summarize()

# A tibble: 43 × 1
   State      
   <chr>      
 1 Alabama    
 2 Arizona    
 3 Arkansas   
 4 California 
 5 Colorado   
 6 Connecticut
 7 Florida    
 8 Georgia    
 9 Illinois   
10 Indiana    
# ℹ 33 more rows
…
