hw3 stat128
…
[1] "1999-06-05" "2000-12-30"

The earliest song entered into the data set was on June 05, 1999 and the latest song entered into the data set was on December 30th, 2000. These songs were also monitored for 76 weeks after the date they entered the charts. So, technically, the data covers 3 years, from June 1999 to June 2002. But strictly speaking, the songs that were entered cover a span of a year and half, from June 1999 to December 2000.

2. Is the data complete for the year 2000?

gather(billboard, Variable, Value) |>
    group_by(Variable) |>
    summarize(Completeness = mean(!is.na(Value)) * 100) |>
    arrange(desc(Completeness))

Warning: attributes are not identical across measure variables; they will be
dropped

# A tibble: 79 × 2
   Variable     Completeness
   <chr>               <dbl>
 1 artist              100  
 2 date.entered        100  
 3 track               100  
 4 wk1                 100  
 5 wk2                  98.4
 6 wk3                  96.8
 7 wk4                  94.6
 8 wk5                  92.1
 9 wk6                  88.3
10 wk7                  84.9
# ℹ 69 more rows
…
abbr <- world_bank_pop |> group_by(country) |> summarize()
code <- pull(abbr) # turning a tibble into a vector
name <- countrycode(code, origin = "iso3c", destination = "country.name")

Warning: Some values were not matched unambiguously: AFE, AFW, ARB, CEB, CHI, CSS, EAP, EAR, EAS, ECA, ECS, EMU, EUU, FCS, HIC, HPC, IBD, IBT, IDA, IDB, IDX, INX, LAC, LCN, LDC, LIC, LMC, LMY, LTE, MEA, MIC, MNA, NAC, OED, OSS, PRE, PSS, PST, SAS, SSA, SSF, SST, TEA, TEC, TLA, TMN, TSA, TSS, UMC, WLD, XKX

country_names <- tibble(code, name) # turning the vector into a tibble

population <- inner_join(
  world_bank_pop, country_names, 
  by = join_by(country == code)) |>
  relocate(country, name)
population

# A tibble: 1,064 × 21
   country name        indicator  `2000`  `2001`  `2002`  `2003`  `2004`  `2005`
   <chr>   <chr>       <chr>       <dbl>   <dbl>   <dbl>   <dbl>   <dbl>   <dbl>
 1 ABW     Aruba       SP.URB.TO… 4.16e4 4.20e+4 4.22e+4 4.23e+4 4.23e+4 4.24e+4
 2 ABW     Aruba       SP.URB.GR… 1.66e0 9.56e-1 4.01e-1 1.97e-1 9.46e-2 1.94e-1
 3 ABW     Aruba       SP.POP.TO… 8.91e4 9.07e+4 9.18e+4 9.27e+4 9.35e+4 9.45e+4
 4 ABW     Aruba       SP.POP.GR… 2.54e0 1.77e+0 1.19e+0 9.97e-1 9.01e-1 1.00e+0
 5 AFE     <NA>        SP.URB.TO… 1.16e8 1.20e+8 1.24e+8 1.29e+8 1.34e+8 1.39e+8
 6 AFE     <NA>        SP.URB.GR… 3.60e0 3.66e+0 3.72e+0 3.71e+0 3.74e+0 3.81e+0
 7 AFE     <NA>        SP.POP.TO… 4.02e8 4.12e+8 4.23e+8 4.34e+8 4.45e+8 4.57e+8
 8 AFE     <NA>        SP.POP.GR… 2.58e0 2.59e+0 2.61e+0 2.62e+0 2.64e+0 2.67e+0
 9 AFG     Afghanistan SP.URB.TO… 4.31e6 4.36e+6 4.67e+6 5.06e+6 5.30e+6 5.54e+6
10 AFG     Afghanistan SP.URB.GR… 1.86e0 1.15e+0 6.86e+0 7.95e+0 4.59e+0 4.47e+0
# ℹ 1,054 more rows
# ℹ 12 more variables: `2006` <dbl>, `2007` <dbl>, `2008` <dbl>, `2009` <dbl>,
#   `2010` <dbl>, `2011` <dbl>, `2012` <dbl>, `2013` <dbl>, `2014` <dbl>,
#   `2015` <dbl>, `2016` <dbl>, `2017` <dbl>
…
