hw4 stat128
…
# code to tidy data
water <- read_delim("/Users/Jessica/Downloads/STAT_128/HW4_DataSets/water-temp.txt", comment="#", delim="\t") |>
  slice(-1) |>
  rename(water_temp = `15722_00010`) |>
  mutate(water_temp = as.double(water_temp),
         datetime = ymd_hm(datetime, tz = "US/Pacific"))

1 Warm Up

1. How many rows and columns are in the river temperature data?

water

# A tibble: 137,727 × 6
   agency_cd  site_no datetime            tz_cd water_temp `15722_00010_cd`
   <chr>        <dbl> <dttm>              <chr>      <dbl> <chr>           
 1 USGS      11446980 2020-09-23 00:00:00 PDT         20.7 A               
 2 USGS      11446980 2020-09-23 00:15:00 PDT         20.6 A               
 3 USGS      11446980 2020-09-23 00:30:00 PDT         20.6 A               
 4 USGS      11446980 2020-09-23 00:45:00 PDT         20.5 A               
 5 USGS      11446980 2020-09-23 01:00:00 PDT         20.4 A               
 6 USGS      11446980 2020-09-23 01:15:00 PDT         20.4 A               
 7 USGS      11446980 2020-09-23 01:30:00 PDT         20.3 A               
 8 USGS      11446980 2020-09-23 01:45:00 PDT         20.2 A               
 9 USGS      11446980 2020-09-23 02:00:00 PDT         20.2 A               
10 USGS      11446980 2020-09-23 02:15:00 PDT         20.1 A               
# ℹ 137,717 more rows
…
Rows: 137728 Columns: 6
── Column specification ────────────────────────────────────────────────────────
Delimiter: "\t"
chr (5): agency_cd, datetime, tz_cd, 15722_00010, 15722_00010_cd
dbl (1): site_no

ℹ Use `spec()` to retrieve the full column specification for this data.
ℹ Specify the column types or set `show_col_types = FALSE` to quiet this message.

water

# A tibble: 137,727 × 3
   datetime            temperature qual 
   <dttm>                    <dbl> <chr>
 1 2020-09-23 00:00:00        20.7 A    
 2 2020-09-23 00:15:00        20.6 A    
 3 2020-09-23 00:30:00        20.6 A    
 4 2020-09-23 00:45:00        20.5 A    
 5 2020-09-23 01:00:00        20.4 A    
 6 2020-09-23 01:15:00        20.4 A    
 7 2020-09-23 01:30:00        20.3 A    
 8 2020-09-23 01:45:00        20.2 A    
 9 2020-09-23 02:00:00        20.2 A    
10 2020-09-23 02:15:00        20.1 A    
# ℹ 137,717 more rows
…
[1] "2020-09-23 00:00:00 PDT" "2024-09-23 04:45:00 PDT"

# do we have all the days in between the start and end date?
water |>
  group_by(date = ymd(datetime)) |>
  summarize()

Warning: There was 1 warning in `group_by()`.
ℹ In argument: `date = ymd(datetime)`.
Caused by warning:
!  136288 failed to parse.

# A tibble: 1,440 × 1
   date      
   <date>    
 1 2020-09-23
 2 2020-09-24
 3 2020-09-25
 4 2020-09-26
 5 2020-09-27
 6 2020-09-28
 7 2020-09-29
 8 2020-09-30
 9 2020-10-01
10 2020-10-02
# ℹ 1,430 more rows

# do we have every time interval per day?
water |>
  group_by(days = yday(datetime)) |>
  summarize(count = n())

# A tibble: 366 × 2
    days count
   <dbl> <int>
 1     1   384
 2     2   384
 3     3   376
 4     4   376
 5     5   330
 6     6   308
 7     7   348
 8     8   384
 9     9   384
10    10   384
# ℹ 356 more rows
…
